{
	"name": "SMeherPL",
	"properties": {
		"activities": [
			{
				"name": "TESTING34",
				"type": "Wait",
				"dependsOn": [],
				"userProperties": [],
				"typeProperties": {
					"waitTimeInSeconds": 10
				}
			}
		],
		"variables": {
			"test": {
				"type": "String",
				"defaultValue": "''"
			}
		},
		"annotations": [],
		"lastPublishTime": "2021-05-31T08:52:46Z"
	},
	"type": "Microsoft.DataFactory/factories/pipelines"
}